%YAML 1.1
%TAG !u! tag:unity3d.com,2011:
--- !u!1 &100004
GameObject:
  m_ObjectHideFlags: 0
  m_CorrespondingSourceObject: {fileID: 0}
  m_PrefabInternal: {fileID: 100100000}
  serializedVersion: 6
  m_Component:
  - component: {fileID: 400000}
  - component: {fileID: 2000000}
  - component: {fileID: 8100000}
  - component: {fileID: 11400006}
  - component: {fileID: 13548648}
  - component: {fileID: 114000012948985922}
  - component: {fileID: 114000013607024712}
  - component: {fileID: 114000012901523100}
  - component: {fileID: 114000011089205638}
  - component: {fileID: 114000013541192154}
  - component: {fileID: 114000010466385786}
  m_Layer: 0
  m_Name: MainCamera
  m_TagString: MainCamera
  m_Icon: {fileID: 0}
  m_NavMeshLayer: 0
  m_StaticEditorFlags: 0
  m_IsActive: 1
--- !u!1 &100006
GameObject:
  m_ObjectHideFlags: 0
  m_CorrespondingSourceObject: {fileID: 0}
  m_PrefabInternal: {fileID: 100100000}
  serializedVersion: 6
  m_Component:
  - component: {fileID: 400002}
  - component: {fileID: 5400000}
  - component: {fileID: 13600000}
  - component: {fileID: 11459120}
  m_Layer: 0
  m_Name: RigidBodyFPSController
  m_TagString: Player
  m_Icon: {fileID: 0}
  m_NavMeshLayer: 0
  m_StaticEditorFlags: 0
  m_IsActive: 1
--- !u!4 &400000
Transform:
  m_ObjectHideFlags: 1
  m_CorrespondingSourceObject: {fileID: 0}
  m_PrefabInternal: {fileID: 100100000}
  m_GameObject: {fileID: 100004}
  m_LocalRotation: {x: 0, y: 0, z: 0, w: 1}
  m_LocalPosition: {x: 0, y: 0.8, z: 0}
  m_LocalScale: {x: 1, y: 1, z: 1}
  m_Children: []
  m_Father: {fileID: 400002}
  m_RootOrder: 0
  m_LocalEulerAnglesHint: {x: 0, y: 0, z: 0}
--- !u!4 &400002
Transform:
  m_ObjectHideFlags: 1
  m_CorrespondingSourceObject: {fileID: 0}
  m_PrefabInternal: {fileID: 100100000}
  m_GameObject: {fileID: 100006}
  m_LocalRotation: {x: -0, y: 0.70710886, z: -0, w: 0.70710474}
  m_LocalPosition: {x: -0.026, y: 1.089, z: -2.053}
  m_LocalScale: {x: 1, y: 1, z: 1}
  m_Children:
  - {fileID: 400000}
  m_Father: {fileID: 0}
  m_RootOrder: 0
  m_LocalEulerAnglesHint: {x: 0, y: -270, z: 0}
--- !u!20 &2000000
Camera:
  m_ObjectHideFlags: 1
  m_CorrespondingSourceObject: {fileID: 0}
  m_PrefabInternal: {fileID: 100100000}
  m_GameObject: {fileID: 100004}
  m_Enabled: 1
  serializedVersion: 2
  m_ClearFlags: 1
  m_BackGroundColor: {r: 0.19215687, g: 0.3019608, b: 0.4745098, a: 0.019607844}
  m_projectionMatrixMode: 1
  m_SensorSize: {x: 36, y: 24}
  m_LensShift: {x: 0, y: 0}
  m_FocalLength: 50
  m_NormalizedViewPortRect:
    serializedVersion: 2
    x: 0
    y: 0
    width: 1
    height: 1
  near clip plane: 0.1
  far clip plane: 1000
  field of view: 60
  orthographic: 0
  orthographic size: 5
  m_Depth: 0
  m_CullingMask:
    serializedVersion: 2
    m_Bits: 4294967295
  m_RenderingPath: -1
  m_TargetTexture: {fileID: 0}
  m_TargetDisplay: 0
  m_TargetEye: 3
  m_HDR: 1
  m_AllowMSAA: 1
  m_AllowDynamicResolution: 0
  m_ForceIntoRT: 0
  m_OcclusionCulling: 1
  m_StereoConvergence: 10
  m_StereoSeparation: 0.022
--- !u!54 &5400000
Rigidbody:
  m_ObjectHideFlags: 1
  m_CorrespondingSourceObject: {fileID: 0}
  m_PrefabInternal: {fileID: 100100000}
  m_GameObject: {fileID: 100006}
  serializedVersion: 2
  m_Mass: 50
  m_Drag: 0
  m_AngularDrag: 0.05
  m_UseGravity: 1
  m_IsKinematic: 0
  m_Interpolate: 0
  m_Constraints: 112
  m_CollisionDetection: 0
--- !u!81 &8100000
AudioListener:
  m_ObjectHideFlags: 1
  m_CorrespondingSourceObject: {fileID: 0}
  m_PrefabInternal: {fileID: 100100000}
  m_GameObject: {fileID: 100004}
  m_Enabled: 1
--- !u!114 &11400006
MonoBehaviour:
  m_ObjectHideFlags: 1
  m_CorrespondingSourceObject: {fileID: 0}
  m_PrefabInternal: {fileID: 100100000}
  m_GameObject: {fileID: 100004}
  m_Enabled: 0
  m_EditorHideFlags: 0
  m_Script: {fileID: 11500000, guid: 83c81407209f85e4c87c0cda8b32868e, type: 3}
  m_Name: 
  m_EditorClassIdentifier: 
  Camera: {fileID: 2000000}
  motionBob:
    HorizontalBobRange: 0.1
    VerticalBobRange: 0.05
    Bobcurve:
      m_Curve:
      - time: 0
        value: 0
        inSlope: 0
        outSlope: 0
        tangentMode: 0
      - time: 0.5
        value: 1
        inSlope: 0
        outSlope: 0
        tangentMode: 0
      - time: 1
        value: 0
        inSlope: 0
        outSlope: 0
        tangentMode: 0
      - time: 1.5
        value: -1
        inSlope: 0
        outSlope: 0
        tangentMode: 0
      - time: 2
        value: 0
        inSlope: 0
        outSlope: 0
        tangentMode: 0
      m_PreInfinity: 2
      m_PostInfinity: 2
      m_RotationOrder: 4
    VerticaltoHorizontalRatio: 2
  jumpAndLandingBob:
    BobDuration: 0.15
    BobAmount: 0.2
  rigidbodyFirstPersonController: {fileID: 11459120}
  StrideInterval: 4
  RunningStrideLengthen: 0.722
--- !u!114 &11459120
MonoBehaviour:
  m_ObjectHideFlags: 1
  m_CorrespondingSourceObject: {fileID: 0}
  m_PrefabInternal: {fileID: 100100000}
  m_GameObject: {fileID: 100006}
  m_Enabled: 1
  m_EditorHideFlags: 0
  m_Script: {fileID: 11500000, guid: 81c9795a96c094f4cbde4d65546aa9b2, type: 3}
  m_Name: 
  m_EditorClassIdentifier: 
  cam: {fileID: 2000000}
  movementSettings:
    ForwardSpeed: 10
    BackwardSpeed: 8
    StrafeSpeed: 10
    RunMultiplier: 2
    RunKey: 304
    JumpForce: 250
    SlopeCurveModifier:
      m_Curve:
      - time: 77.86841
        value: 0.9999609
        inSlope: 0
        outSlope: 0
        tangentMode: 0
      - time: 97.5
        value: 0
        inSlope: 0
        outSlope: 0
        tangentMode: 0
      m_PreInfinity: 2
      m_PostInfinity: 2
      m_RotationOrder: 4
    CurrentTargetSpeed: 8
  mouseLook:
    XSensitivity: 2
    YSensitivity: 2
    clampVerticalRotation: 1
    MinimumX: -90
    MaximumX: 90
    smooth: 0
    smoothTime: 15
    lockCursor: 1
  advancedSettings:
    groundCheckDistance: 0.1
    stickToGroundHelperDistance: 1
    slowDownRate: 20
    airControl: 0
    shellOffset: 0
--- !u!135 &13548648
SphereCollider:
  m_ObjectHideFlags: 1
  m_CorrespondingSourceObject: {fileID: 0}
  m_PrefabInternal: {fileID: 100100000}
  m_GameObject: {fileID: 100004}
  m_Material: {fileID: 0}
  m_IsTrigger: 1
  m_Enabled: 1
  serializedVersion: 2
  m_Radius: 0.2
  m_Center: {x: 0, y: 0, z: 0}
--- !u!136 &13600000
CapsuleCollider:
  m_ObjectHideFlags: 1
  m_CorrespondingSourceObject: {fileID: 0}
  m_PrefabInternal: {fileID: 100100000}
  m_GameObject: {fileID: 100006}
  m_Material: {fileID: 13400000, guid: cf63880488ec29f43a759ecd9c6c5123, type: 2}
  m_IsTrigger: 0
  m_Enabled: 1
  m_Radius: 0.3
  m_Height: 1.7
  m_Direction: 1
  m_Center: {x: 0, y: 0, z: 0}
--- !u!1001 &100100000
Prefab:
  m_ObjectHideFlags: 1
  serializedVersion: 2
  m_Modification:
    m_TransformParent: {fileID: 0}
    m_Modifications: []
    m_RemovedComponents: []
  m_SourcePrefab: {fileID: 0}
  m_RootGameObject: {fileID: 100006}
  m_IsPrefabAsset: 1
--- !u!114 &114000010466385786
MonoBehaviour:
  m_ObjectHideFlags: 1
  m_CorrespondingSourceObject: {fileID: 0}
  m_PrefabInternal: {fileID: 100100000}
  m_GameObject: {fileID: 100004}
  m_Enabled: 1
  m_EditorHideFlags: 0
  m_Script: {fileID: 11500000, guid: ff5335a7357baa3489a469d0ca0f40f3, type: 3}
  m_Name: 
  m_EditorClassIdentifier: 
  distortion:
    enabled: 1
    amount: 12
    centerX: 0
    centerY: 0
    amountX: 1
    amountY: 1
    scale: 1.005
  vignette:
    enabled: 1
    color:
      r: 0
      g: 0
      b: 0
      a: 1
    center: {x: 0.5, y: 0.5}
    intensity: 0.91
    smoothness: 0.8
    roundness: 1
    blur: 0
    desaturate: 0
  chromaticAberration:
    enabled: 1
    color:
      r: 0
      g: 1
      b: 0
      a: 1
    amount: 0.8
  m_Shader: {fileID: 4800000, guid: 136ab50fe2b9ad64d9c22adc3668abb7, type: 3}
--- !u!114 &114000011089205638
MonoBehaviour:
  m_ObjectHideFlags: 1
  m_CorrespondingSourceObject: {fileID: 0}
  m_PrefabInternal: {fileID: 100100000}
  m_GameObject: {fileID: 100004}
  m_Enabled: 1
  m_EditorHideFlags: 0
  m_Script: {fileID: 11500000, guid: e89654dcf6db746d2a57aeaaa14f5e83, type: 3}
  m_Name: 
  m_EditorClassIdentifier: 
  settings:
    intensity: 0.2
    radius: 0.2
    sampleCount: 1
    sampleCountValue: 24
    downsampling: 0
    ambientOnly: 0
    occlusionSource: 0
    debug: 0
  _aoShader: {fileID: 4800000, guid: 65e203e5acda447acbf9dc1ef78c4a39, type: 3}
  _quadMesh: {fileID: 10210, guid: 0000000000000000e000000000000000, type: 0}
--- !u!114 &114000012901523100
MonoBehaviour:
  m_ObjectHideFlags: 1
  m_CorrespondingSourceObject: {fileID: 0}
  m_PrefabInternal: {fileID: 100100000}
  m_GameObject: {fileID: 100004}
  m_Enabled: 1
  m_EditorHideFlags: 0
  m_Script: {fileID: 11500000, guid: 32187365ced0c42219cde2b57c99b323, type: 3}
  m_Name: 
  m_EditorClassIdentifier: 
  settings:
    threshold: 0.8
    softKnee: 0.5
    radius: 4.47
    intensity: 0.016
    highQuality: 1
    antiFlicker: 1
  m_Shader: {fileID: 4800000, guid: e45d4f28262b04d10a075856ab5fdb5e, type: 3}
--- !u!114 &114000012948985922
MonoBehaviour:
  m_ObjectHideFlags: 1
  m_CorrespondingSourceObject: {fileID: 0}
  m_PrefabInternal: {fileID: 100100000}
  m_GameObject: {fileID: 100004}
  m_Enabled: 1
  m_EditorHideFlags: 0
  m_Script: {fileID: 11500000, guid: fdc35e0180670ab4e8d2f9439137791f, type: 3}
  m_Name: 
  m_EditorClassIdentifier: 
  m_SMAA:
    settings:
      debugPass: 0
      quality: 1
      edgeDetectionMethod: 2
    quality:
      diagonalDetection: 1
      cornerDetection: 1
      threshold: 0.1
      depthThreshold: 0.01
      maxSearchSteps: 16
      maxDiagonalSearchSteps: 8
      cornerRounding: 25
      localContrastAdaptationFactor: 2
    predication:
      enabled: 0
      threshold: 0.01
      scale: 2
      strength: 0.4
    temporal:
      enabled: 0
      fuzzSize: 1.5
  m_FXAA:
    preset:
      qualitySettings:
        subpixelAliasingRemovalAmount: 0.75
        edgeDetectionThreshold: 0.166
        minimumRequiredLuminance: 0.0833
      consoleSettings:
        subpixelSpreadAmount: 0.5
        edgeSharpnessAmount: 8
        edgeDetectionThreshold: 0.125
        minimumRequiredLuminance: 0.05
  m_Method: 0
--- !u!114 &114000013541192154
MonoBehaviour:
  m_ObjectHideFlags: 1
  m_CorrespondingSourceObject: {fileID: 0}
  m_PrefabInternal: {fileID: 100100000}
  m_GameObject: {fileID: 100004}
  m_Enabled: 1
  m_EditorHideFlags: 0
  m_Script: {fileID: 11500000, guid: 58a7625302996c94ba07a8ca3351f668, type: 3}
  m_Name: 
  m_EditorClassIdentifier: 
  m_HistogramComputeShader: {fileID: 7200000, guid: 5ee4b74fa28a3e74e89423dd49705fc5,
    type: 3}
  m_HistogramShader: {fileID: 4800000, guid: 9a8e838691462194482a43a02e424876, type: 3}
  histogramRefreshOnPlay: 1
  m_EyeAdaptation:
    enabled: 0
    middleGrey: 0.5
    min: -1.2
    max: 1.2
    speed: 1.5
    showDebug: 0
  m_Tonemapping:
    enabled: 1
    tonemapper: 6
    exposure: 1
    curve:
      m_Curve:
      - time: 0
        value: 0
        inSlope: 1
        outSlope: 1
        tangentMode: 0
      - time: 1
        value: 1
        inSlope: 1
        outSlope: 1
        tangentMode: 0
      m_PreInfinity: 2
      m_PostInfinity: 2
      m_RotationOrder: 4
    neutralBlackIn: 0.02
    neutralWhiteIn: 10
    neutralBlackOut: 0
    neutralWhiteOut: 10
    neutralWhiteLevel: 5.3
    neutralWhiteClip: 10
  m_ColorGrading:
    enabled: 1
    precision: 16
    colorWheels:
      shadows:
        r: 1
        g: 1
        b: 1
        a: 1
      midtones:
        r: 1
        g: 1
        b: 1
        a: 1
      highlights:
        r: 1
        g: 1
        b: 1
        a: 1
    basics:
      temperatureShift: 0
      tint: 0
      hue: 0
      saturation: 1
      vibrance: 0
      value: 1
      contrast: 1.03
      gain: 1
      gamma: 1.22
    channelMixer:
      currentChannel: 0
      channels:
      - {x: 1, y: 0, z: 0}
      - {x: 0, y: 1, z: 0}
      - {x: 0, y: 0, z: 1}
    curves:
      master:
        m_Curve:
        - time: 0
          value: 0
          inSlope: 1
          outSlope: 1
          tangentMode: 0
        - time: 0.33992314
          value: 0.4668803
          inSlope: 1.0000169
          outSlope: 1.0000169
          tangentMode: 0
        - time: 1
          value: 1
          inSlope: 1
          outSlope: 1
          tangentMode: 0
        m_PreInfinity: 2
        m_PostInfinity: 2
        m_RotationOrder: 0
      red:
        m_Curve:
        - time: 0
          value: 0
          inSlope: 1
          outSlope: 1
          tangentMode: 0
        - time: 1
          value: 1
          inSlope: 1
          outSlope: 1
          tangentMode: 0
        m_PreInfinity: 2
        m_PostInfinity: 2
        m_RotationOrder: 0
      green:
        m_Curve:
        - time: 0
          value: 0.0025166252
          inSlope: 0.8769009
          outSlope: 0.8769009
          tangentMode: 0
        - time: 0.10137166
          value: 0.10137166
          inSlope: 1.0000169
          outSlope: 1.0000169
          tangentMode: 0
        - time: 1
          value: 1
          inSlope: 1
          outSlope: 1
          tangentMode: 0
        m_PreInfinity: 2
        m_PostInfinity: 2
        m_RotationOrder: 0
      blue:
        m_Curve:
        - time: 0
          value: 0.003939119
          inSlope: 0.9017169
          outSlope: 0.9017169
          tangentMode: 0
        - time: 0.09606852
          value: 0.09606852
          inSlope: 1.0000169
          outSlope: 1.0000169
          tangentMode: 0
        - time: 1
          value: 1
          inSlope: 1
          outSlope: 1
          tangentMode: 0
        m_PreInfinity: 2
        m_PostInfinity: 2
        m_RotationOrder: 0
    useDithering: 0
    showDebug: 0
  m_Lut:
    enabled: 0
    texture: {fileID: 0}
    contribution: 1
  m_Shader: {fileID: 4800000, guid: 964b34bbab7f5e64fa40f37eaccac1ad, type: 3}
--- !u!114 &114000013607024712
MonoBehaviour:
  m_ObjectHideFlags: 1
  m_CorrespondingSourceObject: {fileID: 0}
  m_PrefabInternal: {fileID: 100100000}
  m_GameObject: {fileID: 100004}
  m_Enabled: 1
  m_EditorHideFlags: 0
  m_Script: {fileID: 11500000, guid: da3ff4a1bef2e8d47a1dfb734aa54de1, type: 3}
  m_Name: 
  m_EditorClassIdentifier: 
  settings:
    reflectionSettings:
      blendType: 0
      reflectionQuality: 0
      maxDistance: 100
      iterationCount: 64
      stepSize: 16
      widthModifier: 0.5
      reflectionBlur: 1
      reflectBackfaces: 1
    intensitySettings:
      reflectionMultiplier: 1
      fadeDistance: 50
      fresnelFade: 0.5
      fresnelFadePower: 5
    screenEdgeMask:
      intensity: 0.03
  m_Shader: {fileID: 4800000, guid: 7e2fcc83af19e744787647ec0ac5d42c, type: 3}
